%YAML 1.1
%TAG !u! tag:unity3d.com,2011:
--- !u!1 &114156
GameObject:
  m_ObjectHideFlags: 0
  m_PrefabParentObject: {fileID: 0}
  m_PrefabInternal: {fileID: 100100000}
  serializedVersion: 5
  m_Component:
  - component: {fileID: 491708}
  - component: {fileID: 3300646}
  - component: {fileID: 2303492}
  m_Layer: 0
  m_Name: ceiling
  m_TagString: Untagged
  m_Icon: {fileID: 0}
  m_NavMeshLayer: 0
  m_StaticEditorFlags: 4294967295
  m_IsActive: 1
--- !u!4 &491708
Transform:
  m_ObjectHideFlags: 1
  m_PrefabParentObject: {fileID: 0}
  m_PrefabInternal: {fileID: 100100000}
  m_GameObject: {fileID: 114156}
  m_LocalRotation: {x: -0.7071068, y: -1.2893142e-31, z: 1.2893142e-31, w: 0.7071068}
  m_LocalPosition: {x: 8.9, y: 2.98, z: 4.75}
  m_LocalScale: {x: 1.1010938, y: 1.08, z: 1}
  m_Children: []
  m_Father: {fileID: 0}
  m_RootOrder: 0
  m_LocalEulerAnglesHint: {x: 0, y: 0, z: 0}
--- !u!23 &2303492
MeshRenderer:
  m_ObjectHideFlags: 1
  m_PrefabParentObject: {fileID: 0}
  m_PrefabInternal: {fileID: 100100000}
  m_GameObject: {fileID: 114156}
  m_Enabled: 1
  m_CastShadows: 1
  m_ReceiveShadows: 1
  m_DynamicOccludee: 1
  m_MotionVectors: 1
  m_LightProbeUsage: 1
  m_ReflectionProbeUsage: 1
  m_Materials:
  - {fileID: 2100000, guid: e7705d3dd5fc52d44ad611457716bd07, type: 2}
  - {fileID: 2100000, guid: 7bf017a13d237294087a8b245d4972c3, type: 2}
  - {fileID: 2100000, guid: e7705d3dd5fc52d44ad611457716bd07, type: 2}
  - {fileID: 2100000, guid: 7bf017a13d237294087a8b245d4972c3, type: 2}
  - {fileID: 2100000, guid: 3c6beb45e59e4f74fb7bebf848eb3d3f, type: 2}
  - {fileID: 2100000, guid: 3c6beb45e59e4f74fb7bebf848eb3d3f, type: 2}
  - {fileID: 2100000, guid: 3c6beb45e59e4f74fb7bebf848eb3d3f, type: 2}
  - {fileID: 2100000, guid: 3c6beb45e59e4f74fb7bebf848eb3d3f, type: 2}
  m_StaticBatchInfo:
    firstSubMesh: 0
    subMeshCount: 0
  m_StaticBatchRoot: {fileID: 0}
  m_ProbeAnchor: {fileID: 0}
  m_LightProbeVolumeOverride: {fileID: 0}
  m_ScaleInLightmap: 1
  m_PreserveUVs: 0
  m_IgnoreNormalsForChartDetection: 0
  m_ImportantGI: 0
  m_StitchLightmapSeams: 0
  m_SelectedEditorRenderState: 3
  m_MinimumChartSize: 4
  m_AutoUVMaxDistance: 0.5
  m_AutoUVMaxAngle: 89
  m_LightmapParameters: {fileID: 0}
  m_SortingLayerID: 0
  m_SortingLayer: 0
  m_SortingOrder: 0
--- !u!33 &3300646
MeshFilter:
  m_ObjectHideFlags: 1
  m_PrefabParentObject: {fileID: 0}
  m_PrefabInternal: {fileID: 100100000}
  m_GameObject: {fileID: 114156}
  m_Mesh: {fileID: 4300000, guid: c5807abf02ea1014aa01b973c8608db3, type: 3}
--- !u!1001 &100100000
Prefab:
  m_ObjectHideFlags: 1
  serializedVersion: 2
  m_Modification:
    m_TransformParent: {fileID: 0}
    m_Modifications: []
    m_RemovedComponents: []
  m_ParentPrefab: {fileID: 0}
  m_RootGameObject: {fileID: 114156}
  m_IsPrefabParent: 1
